Nitrogen project (1)
…
north_parcel

## # A tibble: 71 x 33
##    ObjectID GlobalID `Monitoring Dat~ `Monitor Names` `Vernal Pool?`
##       <dbl> <chr>    <chr>            <chr>           <chr>         
##  1      530 41ec219~ 6/8/21 19:00     Lauren Weichert yes           
##  2      531 3a9babf~ 6/8/21 19:00     Lauren Weichert yes           
##  3      532 81f1a71~ 6/8/21 19:00     Lauren Weichert yes           
##  4      533 3ccf80c~ 6/8/21 19:00     Lauren Weichert yes           
##  5      534 a04ca7f~ 6/8/21 19:00     Lauren Weichert yes           
##  6      535 f197696~ 6/8/21 19:00     Lauren Weichert yes           
##  7      536 13d881d~ 6/8/21 19:00     Lauren Weichert yes           
##  8      537 0109ea7~ 6/8/21 19:00     Lauren Weichert yes           
##  9      538 638e796~ 6/8/21 19:00     Lauren Weichert yes           
## 10      539 1f49980~ 6/8/21 19:00     Lauren Weichert yes           
## # ... with 61 more rows, and 28 more variables: `Vernal Pool Name or
## #   Number` <chr>, `Vernal Pool Axis` <chr>, `Project Site` <chr>, `Total
## #   Transect Length` <dbl>, `Transect Distance of Quadrat` <dbl>, `Side of
## #   Transect (Left or Right)` <chr>, `Vernal Pool Zone` <chr>, `Quadrat Notes
## #   (Optional)` <chr>, `Percent Bare Ground` <dbl>, `Percent Natural
## #   Thatch` <dbl>, `Percent Mowed/Trimmed Thatch` <dbl>, `Thatch Notes
## #   (Optional)` <lgl>, `Count of Native Species` <dbl>, `Sum of Native
## #   Cover` <dbl>, `Count of Non-Native Species` <dbl>, `Sum of Non-Native
## #   Cover` <dbl>, `Count of Unknown Species` <dbl>, `Sum of Unknown
## #   Cover` <dbl>, `Sum of Thatch` <dbl>, `Sum of Other Cover` <dbl>, `Bare
## #   Ground` <dbl>, `SUM of ALL COVER` <dbl>, CreationDate <chr>, Creator <chr>,
## #   EditDate <chr>, Editor <chr>, x <dbl>, y <dbl>

nitrogen_soil2 <- rename(nitrogen_soil, 'nonnative' = 'Total Nonnative PC')
nitrogen_soil2

## # A tibble: 36 x 10
##    Pool  `Quadrat ID` Ammonium Nitrate nonnative X6    X7    X8    X9    X10  
##    <chr> <chr>           <dbl>   <dbl>     <dbl> <lgl> <lgl> <lgl> <lgl> <lgl>
##  1 6     E0              0.114   0.220         4 NA    NA    NA    NA    NA   
##  2 6     T2              0.177   0.318         6 NA    NA    NA    NA    NA   
##  3 6     M4              0.179   0.310         0 NA    NA    NA    NA    NA   
##  4 6     M6              0.571   0.947         0 NA    NA    NA    NA    NA   
##  5 6     T8              0.209   0.380         3 NA    NA    NA    NA    NA   
##  6 6     E10             0.147   0.274        11 NA    NA    NA    NA    NA   
##  7 7     E0              0.198   0.336         5 NA    NA    NA    NA    NA   
##  8 7     T2              0.194   0.318         2 NA    NA    NA    NA    NA   
##  9 7     M10             0.301   0.520         0 NA    NA    NA    NA    NA   
## 10 7     M12             0.161   0.256         0 NA    NA    NA    NA    NA   
## # ... with 26 more rows
…
nitrogen_soil4 <- rename(nitrogen_soil4, 'nonnative'='Total Nonnative PC')
nitrogen_soil4 <- rename (nitrogen_soil4, 'A_N'= 'Ammonium+Nitrate (ug/g*dm)')
nitrogen_soil4 <- rename (nitrogen_soil4, 'Ammonium'='Ammonium(ug/g*dm)')
nitrogen_soil4 <- rename (nitrogen_soil4, 'Nitrate'='Nitrate (ug/g*dm)')
nitrogen_soil4

## # A tibble: 36 x 7
##    Pool  Zone  Distance Ammonium Nitrate   A_N nonnative
##    <chr> <chr>    <dbl>    <dbl>   <dbl> <dbl>     <dbl>
##  1 6     E            0     1.54    2.16  3.70         4
##  2 6     T            2     2.96    3.67  6.63         6
##  3 6     M            4     3.00    3.55  6.55         0
##  4 6     M            6    10.5    13.3  23.8          0
##  5 6     T            8     3.58    4.63  8.20         3
##  6 6     E           10     2.39    3.00  5.39        11
##  7 7     E            0     3.35    3.95  7.30         5
##  8 7     T            2     3.28    3.68  6.96         2
##  9 7     M           10     5.32    6.78 12.1          0
## 10 7     M           12     2.66    2.72  5.38         0
## # ... with 26 more rows
…
## 
## -- Column specification --------------------------------------------------------
## cols(
##   Pool = col_character(),
##   Zone = col_character(),
##   Distance = col_double(),
##   nitrogen = col_double(),
##   `Total Nonnative PC` = col_double()
## )

#nitrogen_plant <- rename(nitrogen_plant,'nitrogen'='Nitrogen weight (ug)')
nitrogen_plant <- rename(nitrogen_plant, 'nonnative'='Total Nonnative PC')
nitrogen_plant

## # A tibble: 36 x 5
##    Pool  Zone  Distance nitrogen nonnative
##    <chr> <chr>    <dbl>    <dbl>     <dbl>
##  1 6     E            0  0.00772         4
##  2 6     T            2  0.00385         6
##  3 6     M            4  0.00743         0
##  4 6     M            6  0.00625         0
##  5 6     T            8  0.00663         3
##  6 6     E           10  0.00788        11
##  7 7     E            0  0.00966         5
##  8 7     T            2  0.00511         2
##  9 7     M           10  0.00744         0
## 10 7     M           12  0.00701         0
## # ... with 26 more rows
…
##             Df Sum Sq Mean Sq F value Pr(>F)
## Nitrate      1   11.2   11.24   0.255  0.617
## Residuals   34 1497.8   44.05

#manipulate data#
nitrogen_soil4$log_nitrate <- log(nitrogen_soil4$Nitrate)
nitrogen_soil4$sq_nitrate <-sqrt(nitrogen_soil4$Nitrate)
nitrogen_soil4

## # A tibble: 36 x 9
##    Pool  Zone  Distance Ammonium Nitrate   A_N nonnative log_nitrate sq_nitrate
##    <chr> <chr>    <dbl>    <dbl>   <dbl> <dbl>     <dbl>       <dbl>      <dbl>
##  1 6     E            0     1.54    2.16  3.70         4       0.772       1.47
##  2 6     T            2     2.96    3.67  6.63         6       1.30        1.92
##  3 6     M            4     3.00    3.55  6.55         0       1.27        1.88
##  4 6     M            6    10.5    13.3  23.8          0       2.59        3.65
##  5 6     T            8     3.58    4.63  8.20         3       1.53        2.15
##  6 6     E           10     2.39    3.00  5.39        11       1.10        1.73
##  7 7     E            0     3.35    3.95  7.30         5       1.37        1.99
##  8 7     T            2     3.28    3.68  6.96         2       1.30        1.92
##  9 7     M           10     5.32    6.78 12.1          0       1.91        2.60
## 10 7     M           12     2.66    2.72  5.38         0       1.00        1.65
## # ... with 26 more rows
…
##             Df Sum Sq Mean Sq F value Pr(>F)
## Ammonium     1    0.6    0.63   0.014  0.906
## Residuals   34 1508.4   44.36

#manipulate data#
nitrogen_soil4$log_ammonium <- log(nitrogen_soil4$Ammonium)
nitrogen_soil4$sq_ammonium <-sqrt(nitrogen_soil4$Ammonium)
nitrogen_soil4

## # A tibble: 36 x 11
##    Pool  Zone  Distance Ammonium Nitrate   A_N nonnative log_nitrate sq_nitrate
##    <chr> <chr>    <dbl>    <dbl>   <dbl> <dbl>     <dbl>       <dbl>      <dbl>
##  1 6     E            0     1.54    2.16  3.70         4       0.772       1.47
##  2 6     T            2     2.96    3.67  6.63         6       1.30        1.92
##  3 6     M            4     3.00    3.55  6.55         0       1.27        1.88
##  4 6     M            6    10.5    13.3  23.8          0       2.59        3.65
##  5 6     T            8     3.58    4.63  8.20         3       1.53        2.15
##  6 6     E           10     2.39    3.00  5.39        11       1.10        1.73
##  7 7     E            0     3.35    3.95  7.30         5       1.37        1.99
##  8 7     T            2     3.28    3.68  6.96         2       1.30        1.92
##  9 7     M           10     5.32    6.78 12.1          0       1.91        2.60
## 10 7     M           12     2.66    2.72  5.38         0       1.00        1.65
## # ... with 26 more rows, and 2 more variables: log_ammonium <dbl>,
## #   sq_ammonium <dbl>
…
##             Df Sum Sq Mean Sq F value Pr(>F)
## A_N          1    6.2     6.2    0.14   0.71
## Residuals   34 1502.8    44.2

No significance between the slopes: 0.7104 (H0)

#manipulate data#
nitrogen_soil4$log_a_n <- log(nitrogen_soil4$A_N)
nitrogen_soil4$sq_a_n <-sqrt(nitrogen_soil4$A_N)
nitrogen_soil4

## # A tibble: 36 x 13
##    Pool  Zone  Distance Ammonium Nitrate   A_N nonnative log_nitrate sq_nitrate
##    <chr> <chr>    <dbl>    <dbl>   <dbl> <dbl>     <dbl>       <dbl>      <dbl>
##  1 6     E            0     1.54    2.16  3.70         4       0.772       1.47
##  2 6     T            2     2.96    3.67  6.63         6       1.30        1.92
##  3 6     M            4     3.00    3.55  6.55         0       1.27        1.88
##  4 6     M            6    10.5    13.3  23.8          0       2.59        3.65
##  5 6     T            8     3.58    4.63  8.20         3       1.53        2.15
##  6 6     E           10     2.39    3.00  5.39        11       1.10        1.73
##  7 7     E            0     3.35    3.95  7.30         5       1.37        1.99
##  8 7     T            2     3.28    3.68  6.96         2       1.30        1.92
##  9 7     M           10     5.32    6.78 12.1          0       1.91        2.60
## 10 7     M           12     2.66    2.72  5.38         0       1.00        1.65
## # ... with 26 more rows, and 4 more variables: log_ammonium <dbl>,
## #   sq_ammonium <dbl>, log_a_n <dbl>, sq_a_n <dbl>
…
##             Df Sum Sq Mean Sq F value Pr(>F)
## nitrogen     1   67.7   67.73   1.598  0.215
## Residuals   34 1441.3   42.39

#manipulate data#
nitrogen_plant$log_nitrogen <- log(nitrogen_plant$nitrogen)
nitrogen_plant$sq_nitrogen <-sqrt(nitrogen_plant$nitrogen)
nitrogen_plant

## # A tibble: 36 x 7
##    Pool  Zone  Distance nitrogen nonnative log_nitrogen sq_nitrogen
##    <chr> <chr>    <dbl>    <dbl>     <dbl>        <dbl>       <dbl>
##  1 6     E            0  0.00772         4        -4.86      0.0879
##  2 6     T            2  0.00385         6        -5.56      0.0620
##  3 6     M            4  0.00743         0        -4.90      0.0862
##  4 6     M            6  0.00625         0        -5.07      0.0791
##  5 6     T            8  0.00663         3        -5.02      0.0814
##  6 6     E           10  0.00788        11        -4.84      0.0887
##  7 7     E            0  0.00966         5        -4.64      0.0983
##  8 7     T            2  0.00511         2        -5.28      0.0715
##  9 7     M           10  0.00744         0        -4.90      0.0863
## 10 7     M           12  0.00701         0        -4.96      0.0837
## # ... with 26 more rows
…
